%YAML 1.1
%TAG !u! tag:unity3d.com,2011:
--- !u!21 &2100000
Material:
  serializedVersion: 6
  m_ObjectHideFlags: 0
  m_CorrespondingSourceObject: {fileID: 0}
  m_PrefabInstance: {fileID: 0}
  m_PrefabAsset: {fileID: 0}
  m_Name: Leaves_1
  m_Shader: {fileID: 14000, guid: 0000000000000000f000000000000000, type: 0}
  m_ShaderKeywords: EFFECT_BUMP GEOM_TYPE_LEAF
  m_LightmapFlags: 5
  m_EnableInstancingVariants: 1
  m_DoubleSidedGI: 0
  m_CustomRenderQueue: 2450
  stringTagMap: {}
  disabledShaderPasses: []
  m_SavedProperties:
    serializedVersion: 3
    m_TexEnvs:
    - _BumpMap:
        m_Texture: {fileID: 2800000, guid: b0c70791f627a85479d5bb859010f794, type: 3}
        m_Scale: {x: 1, y: 1}
        m_Offset: {x: 0, y: 0}
    - _DetailTex:
        m_Texture: {fileID: 0}
        m_Scale: {x: 1, y: 1}
        m_Offset: {x: 0, y: 0}
    - _MainTex:
        m_Texture: {fileID: 2800000, guid: a5da8e4568fcc3d4aa4ff6559e024fc2, type: 3}
        m_Scale: {x: 1, y: 1}
        m_Offset: {x: 0, y: 0}
    m_Floats:
    - _Cull: 0
    - _Cutoff: 0.333
    - _Shininess: 0.1
    - _WindQuality: 0
    m_Colors:
    - _Color: {r: 1, g: 1, b: 1, a: 0.999}
    - _HueVariation: {r: 1, g: 0.5, b: 0, a: 0.1}
    - _SpecColor: {r: 0, g: 0, b: 0, a: 0}
  m_BuildTextureStacks: []
