%YAML 1.1
%TAG !u! tag:unity3d.com,2011:
--- !u!1 &1319487931857072
GameObject:
  m_ObjectHideFlags: 0
  m_CorrespondingSourceObject: {fileID: 0}
  m_PrefabInstance: {fileID: 0}
  m_PrefabAsset: {fileID: 0}
  serializedVersion: 6
  m_Component:
  - component: {fileID: 4225590324958970}
  - component: {fileID: 114754604457434104}
  m_Layer: 0
  m_Name: GF_LevelSelection
  m_TagString: Untagged
  m_Icon: {fileID: 0}
  m_NavMeshLayer: 0
  m_StaticEditorFlags: 0
  m_IsActive: 1
--- !u!4 &4225590324958970
Transform:
  m_ObjectHideFlags: 0
  m_CorrespondingSourceObject: {fileID: 0}
  m_PrefabInstance: {fileID: 0}
  m_PrefabAsset: {fileID: 0}
  m_GameObject: {fileID: 1319487931857072}
  m_LocalRotation: {x: 0, y: 0, z: 0, w: 1}
  m_LocalPosition: {x: 0, y: 0, z: 0}
  m_LocalScale: {x: 1, y: 1, z: 1}
  m_Children: []
  m_Father: {fileID: 0}
  m_RootOrder: 0
  m_LocalEulerAnglesHint: {x: 0, y: 0, z: 0}
--- !u!114 &114754604457434104
MonoBehaviour:
  m_ObjectHideFlags: 0
  m_CorrespondingSourceObject: {fileID: 0}
  m_PrefabInstance: {fileID: 0}
  m_PrefabAsset: {fileID: 0}
  m_GameObject: {fileID: 1319487931857072}
  m_Enabled: 1
  m_EditorHideFlags: 0
  m_Script: {fileID: 11500000, guid: 59d18754da54d9b42a3168b5d333598e, type: 3}
  m_Name: 
  m_EditorClassIdentifier: 
  PreviousScene: 1
  NextScene: 3
  Locked: 1
  PlayableLevels: 8
  LoadingScreen: {fileID: 0}
  LevelsPanel: {fileID: 0}
  FillBar: {fileID: 0}
  ButtonClick: {fileID: 0}
  SequenceID: 1
  LoadingSequence: 1
  LoadingSequenceID: 2
