%YAML 1.1
%TAG !u! tag:unity3d.com,2011:
--- !u!1045 &1
EditorBuildSettings:
  m_ObjectHideFlags: 0
  serializedVersion: 2
  m_Scenes:
  - enabled: 1
    path: Assets/Scenes/MainMenu.unity
    guid: 21ded51fb859f5e4a99cee6d30278fad
  - enabled: 1
    path: Assets/Scenes/LevelSelection.unity
    guid: 91f4ab48c21dd0e4b9a2dffd41c660f9
  - enabled: 1
    path: Assets/Scenes/GamePlay.unity
    guid: 67b806c6d0513024ba086ed64a9cda9f
  - enabled: 1
    path: Assets/Underworld_Mobile/Demo/Horror Survive.unity
    guid: 6d16fee89cff3a549be341b51412ed6c
  m_configObjects:
    com.unity.input.settings: {fileID: 11400000, guid: f4687e337c6012f40a487fd66e19f2da,
      type: 2}
